BBM713 - Data Mining
…
# Standardization expect timestamp, date, wind speed
df_mean <- apply(df[2:14], 2, mean)
apply(df[2:14], 2, range)

##      pitch roll  yaw vgx vgy vgz templ   h   bat   baro  agx   agy        agz
## [1,]   -80 -171 -171 -11 -10 -13    57 -50  10.0  59.00 -772 -1309      -2396
## [2,]     8   83   82  25  10  81    84 180 970.6 970.33  508   788 1636893464

df_scaled <- cbind(df %>% select(timestamp), df %>% select(-timestamp) %>% select(-wind.speed) %>% scale(), df %>% select(wind.speed))
df_scaled

## # A tibble: 6,615 × 15
##      timestamp pitch  roll   yaw     vgx     vgy    vgz templ     h    bat  baro
##          <dbl> <dbl> <dbl> <dbl>   <dbl>   <dbl>  <dbl> <dbl> <dbl>  <dbl> <dbl>
##  1 1636886710. 0.101 0.315  1.34 -0.0154 -0.0155 -0.973 0.305 -1.53 -0.877 0.984
##  2 1636886710. 0.101 0.315  1.34 -0.0154 -0.0155 -0.973 0.305 -1.53 -0.877 0.984
##  3 1636886710. 0.101 0.315  1.34 -0.0154 -0.0155 -0.973 0.305 -1.53 -0.877 0.984
##  4 1636886711. 0.101 0.315  1.34 -0.0154 -0.0155 -0.973 0.305 -1.53 -0.877 0.984
##  5 1636886711. 0.101 0.315  1.34 -0.0154 -0.0155 -0.973 0.305 -1.53 -0.877 0.984
##  6 1636886711. 0.101 0.315  1.34 -0.0154 -0.0155 -0.973 0.305 -1.53 -0.877 0.984
##  7 1636886711. 0.101 0.315  1.34 -0.0154 -0.0155 -0.973 0.305 -1.53 -0.877 0.984
##  8 1636886711. 0.101 0.315  1.34 -0.0154 -0.0155 -0.973 0.305 -1.53 -0.877 0.984
##  9 1636886711. 0.101 0.315  1.34 -0.0154 -0.0155 -0.973 0.305 -1.53 -0.877 0.984
## 10 1636886711. 0.101 0.315  1.34 -0.0154 -0.0155 -0.973 0.305 -1.53 -0.877 0.984
## # … with 6,605 more rows, and 4 more variables: agx <dbl>, agy <dbl>,
## #   agz <dbl>, wind.speed <dbl>
apply(df_scaled, 2, range)

##       timestamp      pitch      roll       yaw       vgx       vgy       vgz
## [1,]        -15 -21.193127 -2.674442 -1.754564 -2.474380 -8.605763 -1.341674
## [2,] 1636893370   2.230455  1.766196  1.662845  5.573049  8.574856  1.324540
##          templ         h       bat       baro        agx       agy       agz
## [1,] -1.187723 -2.384622 -1.049299 -1.2770181 -13.298290 -1.639400 -0.984476
## [2,]  2.170462  1.566540  1.022741  0.9874318   9.085629  2.579972  1.015622
##      wind.speed
## [1,]      -1.00
## [2,]       1.87

df

## # A tibble: 6,615 × 15
##      timestamp pitch  roll   yaw   vgx   vgy   vgz templ     h   bat  baro   agx
##          <dbl> <dbl> <dbl> <dbl> <dbl> <dbl> <dbl> <dbl> <dbl> <dbl> <dbl> <dbl>
##  1 1636886710.     0     0    58     0     0     0    69     0    90  969.   -14
##  2 1636886710.     0     0    58     0     0     0    69     0    90  969    -14
##  3 1636886710.     0     0    58     0     0     0    69     0    90  969    -13
##  4 1636886711.     0     0    58     0     0     0    69     0    90  969.   -14
##  5 1636886711.     0     0    58     0     0     0    69     0    90  969.   -13
##  6 1636886711.     0     0    58     0     0     0    69     0    90  969.   -12
##  7 1636886711.     0     0    58     0     0     0    69     0    90  969.   -14
##  8 1636886711.     0     0    58     0     0     0    69     0    90  969.   -13
##  9 1636886711.     0     0    58     0     0     0    69     0    90  969.   -13
## 10 1636886711.     0     0    58     0     0     0    69     0    90  969.   -13
## # … with 6,605 more rows, and 3 more variables: agy <dbl>, agz <dbl>,
## #   wind.speed <dbl>
…
